Yardstick Extensions for Measuring Spatial Structure in Model Residuals • waywiser
…
As we can see, our data contains a lot of nested tibbles. We only care about our actual assessment-set predictions and the corresponding true values, however. We can get rid of all the other columns and unpack the nested columns using some tools from dplyr and tidyr:

model_predictions <- model_fit %>%
  transmute(assessment = purrr::map(splits, assessment),
            predictions = .predictions) %>% 
  unnest(cols = c(assessment, predictions), names_repair = "minimal") %>% 
  # "mean_temp" exists in both tables, so we'll get rid of the second one here:
  select(-22)

model_predictions
#> # A tibble: 682 × 22
#>    grid_id land_area canopy_gain canopy_loss canopy_no_change canopy_area_2014
#>    <chr>       <dbl>       <dbl>       <dbl>            <dbl>            <dbl>
#>  1 H-10     2691490.      73098.      80362.          345823.          426185.
#>  2 M-9      2690727.      52443.      53467.          304239.          357706.
#>  3 I-10     2691491.      77370.     129464.          434683.          564147.
#>  4 G-15      298658.      10742.      10502.          118964.          129466.
#>  5 H-13     2691492.      90971.     103740.          717828.          821569.
#>  6 G-12     2690726.     109754.      89181.          957357.         1046538.
#>  7 Q-10      156688.       9237.       3094.           57327.           60421.
#>  8 D-10      340049.      17981.       5737.          100755.          106492.
#>  9 M-10     2578879.      27026.      41240.          161115.          202355.
#> 10 J-9      2690726.      66740.      34839.          242211.          277050.
#> # … with 672 more rows, and 16 more variables: canopy_area_2019 <dbl>,
#> #   change_canopy_area <dbl>, change_canopy_percentage <dbl>,
#> #   canopy_percentage_2014 <dbl>, canopy_percentage_2019 <dbl>,
#> #   change_canopy_absolute <dbl>, mean_temp_morning <dbl>,
#> #   mean_temp_evening <dbl>, mean_temp <dbl>, mean_heat_index_morning <dbl>,
#> #   mean_heat_index_evening <dbl>, mean_heat_index <dbl>,
#> #   geometry <MULTIPOLYGON [US_survey_foot]>, .pred <dbl>, .row <int>, …
…
nb <- st_contiguity(boston_canopy)
wt <- st_weights(nb)

We’re finally ready to actually use functions from waywiser to assess our model! Let’s take a look at the local Moran’s I for each of our hexagons, identifying local clusters and outliers to indicate areas where our model might not be properly accounting for the spatial structure of our data.

We can use the ww_local_moran_i() function to calculate the statistic for each observation in our data:

ww_local_moran_i(
  model_predictions,
  mean_temp,
  .pred,
  nb,
  wt
)
#> # A tibble: 682 × 3
#>    .metric       .estimator .estimate
#>    <chr>         <chr>          <dbl>
#>  1 local_moran_i standard     0.0655 
#>  2 local_moran_i standard     0.155  
#>  3 local_moran_i standard    -1.24   
#>  4 local_moran_i standard     0.0869 
#>  5 local_moran_i standard     0.0147 
#>  6 local_moran_i standard     0.00799
#>  7 local_moran_i standard     0.0967 
#>  8 local_moran_i standard     0.0596 
#>  9 local_moran_i standard     0.136  
#> 10 local_moran_i standard     0.0969 
#> # … with 672 more rows

Or, if we want to add Moran’s I as a column to our data frame, we can use ww_local_moran_i_vec() inside a call to mutate():

model_predictions <- model_predictions %>% 
  mutate(local_moran_i = ww_local_moran_i_vec(mean_temp, .pred, nb, wt))

model_predictions
#> # A tibble: 682 × 23
#>    grid_id land_area canopy_gain canopy_loss canopy_no_change canopy_area_2014
#>    <chr>       <dbl>       <dbl>       <dbl>            <dbl>            <dbl>
#>  1 H-10     2691490.      73098.      80362.          345823.          426185.
#>  2 M-9      2690727.      52443.      53467.          304239.          357706.
#>  3 I-10     2691491.      77370.     129464.          434683.          564147.
#>  4 G-15      298658.      10742.      10502.          118964.          129466.
#>  5 H-13     2691492.      90971.     103740.          717828.          821569.
#>  6 G-12     2690726.     109754.      89181.          957357.         1046538.
#>  7 Q-10      156688.       9237.       3094.           57327.           60421.
#>  8 D-10      340049.      17981.       5737.          100755.          106492.
#>  9 M-10     2578879.      27026.      41240.          161115.          202355.
#> 10 J-9      2690726.      66740.      34839.          242211.          277050.
#> # … with 672 more rows, and 17 more variables: canopy_area_2019 <dbl>,
#> #   change_canopy_area <dbl>, change_canopy_percentage <dbl>,
#> #   canopy_percentage_2014 <dbl>, canopy_percentage_2019 <dbl>,
#> #   change_canopy_absolute <dbl>, mean_temp_morning <dbl>,
#> #   mean_temp_evening <dbl>, mean_temp <dbl>, mean_heat_index_morning <dbl>,
#> #   mean_heat_index_evening <dbl>, mean_heat_index <dbl>,
#> #   geometry <MULTIPOLYGON [US_survey_foot]>, .pred <dbl>, .row <int>, …
…
