…
With our spatial relationships defined, we can now fit a model and
calculate spatial dependency in our model residuals!

We’ll fit a simple linear model relating canopy coverage to daily
temperatures, and then generate predictions from that model. We can use
`ww_local_moran_i()` to calculate the local spatial autocorrelation of
our residuals at each data point:

``` r
boston_canopy %>%
  mutate(pred = predict(lm(mean_temp ~ canopy_gain, .))) %>% 
  ww_local_moran_i(mean_temp, pred, nb, wt)
#> # A tibble: 682 × 4
#>    .metric       .estimator .estimate                                   geometry
#>    <chr>         <chr>          <dbl>            <MULTIPOLYGON [US_survey_foot]>
#>  1 local_moran_i standard     0.172   (((745307.9 2921698, 745307.9 2921699, 74…
#>  2 local_moran_i standard     0.149   (((745307.9 2921698, 745307.9 2921699, 74…
#>  3 local_moran_i standard    16.4     (((745307.9 2921698, 745307.9 2921699, 74…
#>  4 local_moran_i standard     0.0434  (((745307.9 2921698, 745307.9 2921699, 74…
#>  5 local_moran_i standard     0.270   (((745307.9 2921698, 745307.9 2921699, 74…
#>  6 local_moran_i standard     0.00428 (((745307.9 2921698, 745307.9 2921699, 74…
#>  7 local_moran_i standard     0.247   (((745307.9 2921698, 745307.9 2921699, 74…
#>  8 local_moran_i standard     0.00144 (((745307.9 2921698, 745307.9 2921699, 74…
#>  9 local_moran_i standard     0.0619  (((745307.9 2921698, 745307.9 2921699, 74…
#> 10 local_moran_i standard    -0.00195 (((745307.9 2921698, 745307.9 2921699, 74…
#> # … with 672 more rows
```
…
