…
# `predict_ww_area_of_applicability_numeric` fails when model has no pcs argument

    Code
      predict_ww_area_of_applicability_numeric(mtcars, mtcars)
    Error <rlang_error>
      `model` must be an `ww_area_of_applicability` object

# normal use

    Code
      predict(aoa, test)
    Output
      # A tibble: 300 x 2
             di aoa  
          <dbl> <lgl>
       1 0.0589 TRUE 
       2 0.0232 TRUE 
       3 0.0324 TRUE 
       4 0.0311 TRUE 
       5 0.330  TRUE 
       6 0.0670 TRUE 
       7 0.0395 TRUE 
       8 0.0181 TRUE 
       9 0.361  TRUE 
      10 0.0407 TRUE 
      # ... with 290 more rows

---

    Code
      predict(aoa, train)
    Output
      # A tibble: 700 x 2
               di aoa  
            <dbl> <lgl>
       1 0        TRUE 
       2 0        TRUE 
       3 0        TRUE 
       4 0        TRUE 
       5 0        TRUE 
       6 0        TRUE 
       7 0        TRUE 
       8 2.95e- 9 TRUE 
       9 5.22e-10 TRUE 
      10 4.17e- 9 TRUE 
      # ... with 690 more rows
…
