# Local Getis-Ord statistics are stable

    Code
      df_local_i <- ww_local_getis_ord_g(guerry_modeled, Crm_prs, predictions)
      df_local_i[1:3]
    Output
      # A tibble: 85 x 3
         .metric           .estimator .estimate
         <chr>             <chr>          <dbl>
       1 local_getis_ord_g standard       0.913
       2 local_getis_ord_g standard       2.49 
       3 local_getis_ord_g standard       2.15 
       4 local_getis_ord_g standard      -1.58 
       5 local_getis_ord_g standard      -1.19 
       6 local_getis_ord_g standard      -1.68 
       7 local_getis_ord_g standard       0.627
       8 local_getis_ord_g standard      -1.60 
       9 local_getis_ord_g standard       0.964
      10 local_getis_ord_g standard      -2.71 
      # ... with 75 more rows

---

    Code
      df_local_i_p <- ww_local_getis_ord_g_pvalue(guerry_modeled, Crm_prs,
        predictions)
      df_local_i_p[1:3]
    Output
      # A tibble: 85 x 3
         .metric                  .estimator .estimate
         <chr>                    <chr>          <dbl>
       1 local_getis_ord_g_pvalue standard      -0.957
       2 local_getis_ord_g_pvalue standard      -2.38 
       3 local_getis_ord_g_pvalue standard      -1.99 
       4 local_getis_ord_g_pvalue standard      -1.49 
       5 local_getis_ord_g_pvalue standard      -1.14 
       6 local_getis_ord_g_pvalue standard      -1.67 
       7 local_getis_ord_g_pvalue standard      -0.611
       8 local_getis_ord_g_pvalue standard      -1.51 
       9 local_getis_ord_g_pvalue standard       0.914
      10 local_getis_ord_g_pvalue standard      -2.66 
      # ... with 75 more rows
…
---

    Code
      df_local_i <- ww_local_getis_ord_g(guerry_modeled, Crm_prs, predictions,
        weights)
      df_local_i[1:3]
    Output
      # A tibble: 85 x 3
         .metric               .estimator .estimate
         <chr>                 <chr>          <dbl>
       1 local_getis_ord_gstar standard       1.35 
       2 local_getis_ord_gstar standard       2.64 
       3 local_getis_ord_gstar standard       2.33 
       4 local_getis_ord_gstar standard      -1.84 
       5 local_getis_ord_gstar standard      -1.19 
       6 local_getis_ord_gstar standard      -2.06 
       7 local_getis_ord_gstar standard       1.58 
       8 local_getis_ord_gstar standard      -2.32 
       9 local_getis_ord_gstar standard       0.880
      10 local_getis_ord_gstar standard      -2.74 
      # ... with 75 more rows

---

    Code
      df_local_i_p <- ww_local_getis_ord_g_pvalue(guerry_modeled, Crm_prs,
        predictions, weights)
      df_local_i_p[1:3]
    Output
      # A tibble: 85 x 3
         .metric                      .estimator .estimate
         <chr>                        <chr>          <dbl>
       1 local_getis_ord_gstar_pvalue standard      -0.928
       2 local_getis_ord_gstar_pvalue standard      -2.42 
       3 local_getis_ord_gstar_pvalue standard      -2.01 
       4 local_getis_ord_gstar_pvalue standard       1.54 
       5 local_getis_ord_gstar_pvalue standard       1.13 
       6 local_getis_ord_gstar_pvalue standard       1.62 
       7 local_getis_ord_gstar_pvalue standard      -0.554
       8 local_getis_ord_gstar_pvalue standard       1.64 
       9 local_getis_ord_gstar_pvalue standard      -0.985
      10 local_getis_ord_gstar_pvalue standard       2.69 
      # ... with 75 more rows
…
