# passing functions to build weights

    Code
      df_local_i <- ww_local_getis_ord_g(guerry_modeled, Crm_prs, predictions, wt = ww_build_weights)
      df_local_i[1:3]
    Output
      # A tibble: 85 x 3
         .metric           .estimator .estimate
         <chr>             <chr>          <dbl>
       1 local_getis_ord_g standard       0.913
       2 local_getis_ord_g standard       2.49 
       3 local_getis_ord_g standard       2.15 
       4 local_getis_ord_g standard      -1.58 
       5 local_getis_ord_g standard      -1.19 
       6 local_getis_ord_g standard      -1.68 
       7 local_getis_ord_g standard       0.627
       8 local_getis_ord_g standard      -1.60 
       9 local_getis_ord_g standard       0.964
      10 local_getis_ord_g standard      -2.71 
      # ... with 75 more rows
…
