…
---

    Code
      ww_local_geary_c(worldclim_simulation, response, response)
    Output
      # A tibble: 10,000 x 4
         .metric       .estimator .estimate                                   geometry
         <chr>         <chr>          <dbl>                           <MULTIPOINT []>
       1 local_geary_c standard         NaN ((-41.18256 -22.75207), (-42.91933 -23.21~
       2 local_geary_c standard         NaN ((-41.18256 -22.75207), (-42.91933 -23.21~
       3 local_geary_c standard         NaN ((-41.18256 -22.75207), (-42.91933 -23.21~
       4 local_geary_c standard         NaN ((-41.18256 -22.75207), (-42.91933 -23.21~
       5 local_geary_c standard         NaN ((-41.18256 -22.75207), (-42.91933 -23.21~
       6 local_geary_c standard         NaN ((-41.18256 -22.75207), (-42.91933 -23.21~
       7 local_geary_c standard         NaN ((-41.18256 -22.75207), (-42.91933 -23.21~
       8 local_geary_c standard         NaN ((-41.18256 -22.75207), (-42.91933 -23.21~
       9 local_geary_c standard         NaN ((-41.18256 -22.75207), (-42.91933 -23.21~
      10 local_geary_c standard         NaN ((-41.18256 -22.75207), (-42.91933 -23.21~
      # ... with 9,990 more rows
