…
---

    Code
      ww_local_getis_ord_g_pvalue(worldclim_simulation, response, response)
    Output
      # A tibble: 10,000 x 3
         .metric                  .estimator .estimate
         <chr>                    <chr>          <dbl>
       1 local_getis_ord_g_pvalue standard         NaN
       2 local_getis_ord_g_pvalue standard         NaN
       3 local_getis_ord_g_pvalue standard         NaN
       4 local_getis_ord_g_pvalue standard         NaN
       5 local_getis_ord_g_pvalue standard         NaN
       6 local_getis_ord_g_pvalue standard         NaN
       7 local_getis_ord_g_pvalue standard         NaN
       8 local_getis_ord_g_pvalue standard         NaN
       9 local_getis_ord_g_pvalue standard         NaN
      10 local_getis_ord_g_pvalue standard         NaN
      # ... with 9,990 more rows

# other generic srr standards

    Code
      withr::with_seed(123, ww_local_getis_ord_g_pvalue(worldclim_loaded, bio13,
        bio19))
    Output
      # A tibble: 10,000 x 3
         .metric                  .estimator .estimate
         <chr>                    <chr>          <dbl>
       1 local_getis_ord_g_pvalue standard    -0.116  
       2 local_getis_ord_g_pvalue standard    -0.788  
       3 local_getis_ord_g_pvalue standard     0.112  
       4 local_getis_ord_g_pvalue standard    -0.130  
       5 local_getis_ord_g_pvalue standard    -0.113  
       6 local_getis_ord_g_pvalue standard     1.96   
       7 local_getis_ord_g_pvalue standard    -0.286  
       8 local_getis_ord_g_pvalue standard     0.0390 
       9 local_getis_ord_g_pvalue standard    -0.318  
      10 local_getis_ord_g_pvalue standard    -0.00638
      # ... with 9,990 more rows

---

    Code
      withr::with_seed(123, ww_local_getis_ord_g_pvalue(worldclim_loaded, bio13,
        bio19))
    Output
      # A tibble: 10,000 x 3
         .metric                  .estimator .estimate
         <chr>                    <chr>          <dbl>
       1 local_getis_ord_g_pvalue standard    -0.116  
       2 local_getis_ord_g_pvalue standard    -0.788  
       3 local_getis_ord_g_pvalue standard     0.112  
       4 local_getis_ord_g_pvalue standard    -0.130  
       5 local_getis_ord_g_pvalue standard    -0.113  
       6 local_getis_ord_g_pvalue standard     1.96   
       7 local_getis_ord_g_pvalue standard    -0.286  
       8 local_getis_ord_g_pvalue standard     0.0390 
       9 local_getis_ord_g_pvalue standard    -0.318  
      10 local_getis_ord_g_pvalue standard    -0.00638
      # ... with 9,990 more rows
…
---

    Code
      withr::with_seed(123, ww_local_getis_ord_g_pvalue(worldclim_loaded, bio13,
        bio19))
    Output
      # A tibble: 10,000 x 3
         .metric                  .estimator .estimate
         <chr>                    <chr>          <dbl>
       1 local_getis_ord_g_pvalue standard    -0.116  
       2 local_getis_ord_g_pvalue standard    -0.788  
       3 local_getis_ord_g_pvalue standard     0.112  
       4 local_getis_ord_g_pvalue standard    -0.130  
       5 local_getis_ord_g_pvalue standard    -0.113  
       6 local_getis_ord_g_pvalue standard     1.96   
       7 local_getis_ord_g_pvalue standard    -0.286  
       8 local_getis_ord_g_pvalue standard     0.0390 
       9 local_getis_ord_g_pvalue standard    -0.318  
      10 local_getis_ord_g_pvalue standard    -0.00638
      # ... with 9,990 more rows

---

    Code
      withr::with_seed(123, ww_local_getis_ord_g_pvalue(worldclim_loaded, bio13,
        bio19, function(data) ww_build_weights(ww_make_point_neighbors(data, k = 5))))
    Output
      # A tibble: 10,000 x 3
         .metric                  .estimator .estimate
         <chr>                    <chr>          <dbl>
       1 local_getis_ord_g_pvalue standard     -0.306 
       2 local_getis_ord_g_pvalue standard     -0.946 
       3 local_getis_ord_g_pvalue standard      0.227 
       4 local_getis_ord_g_pvalue standard     -0.0563
       5 local_getis_ord_g_pvalue standard     -0.239 
       6 local_getis_ord_g_pvalue standard      5.34  
       7 local_getis_ord_g_pvalue standard      3.75  
       8 local_getis_ord_g_pvalue standard     -0.0327
       9 local_getis_ord_g_pvalue standard     -0.492 
      10 local_getis_ord_g_pvalue standard      0.101 
      # ... with 9,990 more rows
…
