Local Getis-Ord G and G* statistic — ww_local_getis_ord_g • waywiser
…
    Examples

guerry_model <- guerry
guerry_lm <- lm(Crm_prs ~ Litercy, guerry_model)
guerry_model$predictions <- predict(guerry_lm, guerry_model)

ww_local_getis_ord_g(guerry_model, Crm_prs, predictions)
#> # A tibble: 85 × 3
#>    .metric           .estimator .estimate
#>    <chr>             <chr>          <dbl>
#>  1 local_getis_ord_g standard       0.913
#>  2 local_getis_ord_g standard       2.49 
#>  3 local_getis_ord_g standard       2.15 
#>  4 local_getis_ord_g standard      -1.58 
#>  5 local_getis_ord_g standard      -1.19 
#>  6 local_getis_ord_g standard      -1.68 
#>  7 local_getis_ord_g standard       0.627
#>  8 local_getis_ord_g standard      -1.60 
#>  9 local_getis_ord_g standard       0.964
#> 10 local_getis_ord_g standard      -2.71 
#> # … with 75 more rows
ww_local_getis_ord_g_pvalue(guerry_model, Crm_prs, predictions)
#> # A tibble: 85 × 3
#>    .metric                  .estimator .estimate
#>    <chr>                    <chr>          <dbl>
#>  1 local_getis_ord_g_pvalue standard     0.357  
#>  2 local_getis_ord_g_pvalue standard     0.0176 
#>  3 local_getis_ord_g_pvalue standard     0.0330 
#>  4 local_getis_ord_g_pvalue standard     0.112  
#>  5 local_getis_ord_g_pvalue standard     0.257  
#>  6 local_getis_ord_g_pvalue standard     0.0856 
#>  7 local_getis_ord_g_pvalue standard     0.562  
#>  8 local_getis_ord_g_pvalue standard     0.111  
#>  9 local_getis_ord_g_pvalue standard     0.304  
#> 10 local_getis_ord_g_pvalue standard     0.00691
#> # … with 75 more rows
…
