Local Geary's C statistic — ww_local_geary_c • waywiser
…
    Examples

guerry_model <- guerry
guerry_lm <- lm(Crm_prs ~ Litercy, guerry_model)
guerry_model$predictions <- predict(guerry_lm, guerry_model)

ww_local_geary_c(guerry_model, Crm_prs, predictions)
#> Warning: Returning more (or less) than 1 row per `summarise()` group was deprecated in
#> dplyr 1.1.0.
#> ℹ Please use `reframe()` instead.
#> ℹ When switching from `summarise()` to `reframe()`, remember that `reframe()`
#>   always returns an ungrouped data frame and adjust accordingly.
#> ℹ The deprecated feature was likely used in the yardstick package.
#>   Please report the issue at <https://github.com/tidymodels/yardstick/issues>.
#> # A tibble: 85 × 3
#>    .metric       .estimator .estimate
#>    <chr>         <chr>          <dbl>
#>  1 local_geary_c standard       0.981
#>  2 local_geary_c standard       0.836
#>  3 local_geary_c standard       0.707
#>  4 local_geary_c standard       0.108
#>  5 local_geary_c standard       0.264
#>  6 local_geary_c standard       1.36 
#>  7 local_geary_c standard       3.64 
#>  8 local_geary_c standard       1.57 
#>  9 local_geary_c standard       0.867
#> 10 local_geary_c standard       0.737
#> # … with 75 more rows
ww_local_geary_pvalue(guerry_model, Crm_prs, predictions)
#> # A tibble: 85 × 3
#>    .metric            .estimator .estimate
#>    <chr>              <chr>          <dbl>
#>  1 local_geary_pvalue standard       0.243
#>  2 local_geary_pvalue standard       0.226
#>  3 local_geary_pvalue standard       0.167
#>  4 local_geary_pvalue standard       0.139
#>  5 local_geary_pvalue standard       0.310
#>  6 local_geary_pvalue standard       0.133
#>  7 local_geary_pvalue standard       0.369
#>  8 local_geary_pvalue standard       0.194
#>  9 local_geary_pvalue standard       0.739
#> 10 local_geary_pvalue standard       0.419
#> # … with 75 more rows
…
