Find the area of applicability — ww_area_of_applicability • waywiser
…
train <- vip::gen_friedman(1000, seed = 101)  # ?vip::gen_friedman
test <- train[701:1000, ]
train <- train[1:700, ]
pp <- stats::ppr(y ~ ., data = train, nterms = 11)
importance <- vip::vi_permute(
  pp,
  target = "y",
  metric = "rsquared",
  pred_wrapper = predict
)

aoa <- ww_area_of_applicability(y ~ ., train, test, importance = importance)
predict(aoa, test)
#> # A tibble: 300 × 2
#>        di aoa  
#>     <dbl> <lgl>
#>  1 0.175  TRUE 
#>  2 0.191  TRUE 
#>  3 0.190  TRUE 
#>  4 0.0802 TRUE 
#>  5 0.141  TRUE 
#>  6 0.287  TRUE 
#>  7 0.178  TRUE 
#>  8 0.205  TRUE 
#>  9 0.134  TRUE 
#> 10 0.177  TRUE 
#> # … with 290 more rows
…
